{
  "creds": {
    "noiseKey": {
      "private": {
        "type": "Buffer",
        "data": "mFHIi7MxWxPG1ASFt5qQfeDnvpIEhHI9w6jDsA0hpFk="
      },
      "public": {
        "type": "Buffer",
        "data": "vYrH61WFRvpqOgurOoiYNHdNpyw9KevAux+LCsGyyzs="
      }
    },
    "signedIdentityKey": {
      "private": {
        "type": "Buffer",
        "data": "YKvnyH+4EJHnDB8Oov/hkLzIryK3TmRmAEtwh7z4wHM="
      },
      "public": {
        "type": "Buffer",
        "data": "Wf5gFTDsycMJgDjemqOz/wd0TOmgSx7ydmx2wRKePHc="
      }
    },
    "signedPreKey": {
      "keyPair": {
        "private": {
          "type": "Buffer",
          "data": "OE1iJiBjBv4xVwuvKpf/gFvVD3XnljJ5CrnfWt0pDnQ="
        },
        "public": {
          "type": "Buffer",
          "data": "/m1QTnL2szW/8+kHybJN9MUbggbTAU2seZni0R5uAGk="
        }
      },
      "signature": {
        "type": "Buffer",
        "data": "DDvTg7CiKLBWhGYkfRNIV/IZgZ/msiPBSBKBzRNqbYArH5Rk2epmP0YayrR4VI6ELBwAd/C8o+aiOkFV1T60gQ=="
      },
      "keyId": 1
    },
    "registrationId": 16,
    "advSecretKey": "oeKTG2qcD3VIsDakq6x3W8VvG5XH24r9uaXm3enqk3E=",
    "nextPreKeyId": 31,
    "firstUnuploadedPreKeyId": 31,
    "serverHasPreKeys": true,
    "account": {
      "details": "CNTvk5cBEPGv1JIGGAE=",
      "accountSignatureKey": "nvj/ip+mX91zVCpa5gSJ005LGn585xG/98pohgdLUW4=",
      "accountSignature": "MBVQ2EWO9lAdAVBh1M5wTC+fKYn1eui19VQzOLiu7oeEzNtt2IMMPspPm54/mZJWK0XugQ8ymZBaUQ0umPAHBA==",
      "deviceSignature": "GpONISAvnfmgCdEB9qTztG+8QtQE5uz6phaqLOr5ES//V6yyIeRnnPb+KSVfk61unqly/UrPDVYKqC8p7jycgQ=="
    },
    "me": {
      "id": "79257520401:1@s.whatsapp.net",
      "verifiedName": "",
      "name": "Farr"
    },
    "signalIdentities": [
      {
        "identifier": {
          "name": "79257520401:1@s.whatsapp.net",
          "deviceId": 0
        },
        "identifierKey": {
          "type": "Buffer",
          "data": "BZ74/4qfpl/dc1QqWuYEidNOSxp+fOcRv/fKaIYHS1Fu"
        }
      }
    ],
    "lastAccountSyncTimestamp": 1649743871,
    "myAppStateKeyId": "AAAAAHih"
  },
  "keys": {
    "preKeys": {
      "1": {
        "private": {
          "type": "Buffer",
          "data": "6Af5neo5Ac2YHzI4XBv6pzevA9Q7lNKiIrzmGdsNrH0="
        },
        "public": {
          "type": "Buffer",
          "data": "9+hmoui5I5wAQNsFi129hgznU7T6eV3vCojpmhSlfDU="
        }
      },
      "2": {
        "private": {
          "type": "Buffer",
          "data": "qF18pTMH6n6hSWd4PClCMsv79Hzauat4H12knv7+r2g="
        },
        "public": {
          "type": "Buffer",
          "data": "yF8TJ7f3vovj9JEpllFYqBL8DRbbme4ST9jf3OMaMEE="
        }
      },
      "3": {
        "private": {
          "type": "Buffer",
          "data": "iCYFQeCosZz4pjNgvr9g0lQvgooVoD82HF9qSd5t51M="
        },
        "public": {
          "type": "Buffer",
          "data": "9FYvCGqv+oVMbbnmxNxVo7uH5CJKexL2LlxgAdUYJxM="
        }
      },
      "4": {
        "private": {
          "type": "Buffer",
          "data": "sFHHrr1ys2pUH/MeUIe9QtoLpqRjJUJhjKlbadqDc1w="
        },
        "public": {
          "type": "Buffer",
          "data": "ZHAUx84+RlOy3j4BlCTHvHh0SSLGNnjOViqvngajawU="
        }
      },
      "5": {
        "private": {
          "type": "Buffer",
          "data": "kGZQl+njzNvfgAzOKOq3I4D+EH15KnVS7I+XfP2Vy0c="
        },
        "public": {
          "type": "Buffer",
          "data": "6ZBiDALiKlPWrQWXkwcIxiBds21WVmwGWteUkNgtsXY="
        }
      },
      "6": {
        "private": {
          "type": "Buffer",
          "data": "8PvnjbNoTmwNeIJ+3nvobUkBZcfEumCUqtosjMVkBUI="
        },
        "public": {
          "type": "Buffer",
          "data": "Nlkf7dSTa5Canw5YzOe7OA3RY80tKWbjofznUv1PVRQ="
        }
      },
      "7": {
        "private": {
          "type": "Buffer",
          "data": "EGlBJRu/oEiCloexjgu6+m/Nwvi26sylqSTXPDlEhmo="
        },
        "public": {
          "type": "Buffer",
          "data": "JA4/iJdw9tpVTJPmIe7Hv/hUxz9VwGmw0ip1oOzo7w4="
        }
      },
      "8": {
        "private": {
          "type": "Buffer",
          "data": "qB5xTeIXlj1xlJhfmQ5b8nlPRZR7laeyDsxZ7OAjjmc="
        },
        "public": {
          "type": "Buffer",
          "data": "X5wlf6kb46uVH28MGaZRLXB9y0QPjohRIEDMDujXiCI="
        }
      },
      "9": {
        "private": {
          "type": "Buffer",
          "data": "WO8NKosN95NQvC72sQ1O3Y6vsDKrsri2xuxeBfnck3c="
        },
        "public": {
          "type": "Buffer",
          "data": "sOZj39jHYPBHcmjLiU+HqC9dXfDe6kKWeYKSc4kq/hA="
        }
      },
      "10": {
        "private": {
          "type": "Buffer",
          "data": "yOqCmhIkZ4ofUFN5xSSoNMs0s2V+5RfIt2/9OM7jf38="
        },
        "public": {
          "type": "Buffer",
          "data": "oFt6eq3oX1XUAyD3iOfraQkcfXhYu+FVELZLmhq5xSw="
        }
      },
      "11": {
        "private": {
          "type": "Buffer",
          "data": "wDlcQpqZXhiVl+djMes08N/Ps9MJx+fyWd5WVWZc12M="
        },
        "public": {
          "type": "Buffer",
          "data": "OnlyRyROs+p6aFfJCgLwuHwi5+on0a504q35UMR/GDc="
        }
      },
      "12": {
        "private": {
          "type": "Buffer",
          "data": "oG+SOOWARUTaBtWoox3rvPSV0NESKVVRk7v0scVB2nw="
        },
        "public": {
          "type": "Buffer",
          "data": "MquZ9B24SwKZikRAKaXJw98t1GDIWTQCSL9MwLwab1I="
        }
      },
      "13": {
        "private": {
          "type": "Buffer",
          "data": "EJCk74la36veWbS+oBq72N1FMLnHjXTOau+QY7dir1o="
        },
        "public": {
          "type": "Buffer",
          "data": "8VoLfQymOoCEuKh02TLWoxluKr3i05GzTE5SX9rbj08="
        }
      },
      "14": {
        "private": {
          "type": "Buffer",
          "data": "aFtD3+qqeZjTy8jDc0nbRvYOkJr+vkB57Qbjbf6uM38="
        },
        "public": {
          "type": "Buffer",
          "data": "GnGIvIqIi7oMGdH6ilxgTAOAqSxRX9vHJPi+P7NblCs="
        }
      },
      "15": {
        "private": {
          "type": "Buffer",
          "data": "iCq0wPMmJcWVTCTAx2ypAGR5CVvEiCMXUwqLarPyzU4="
        },
        "public": {
          "type": "Buffer",
          "data": "BEejHcLjLi6EH7Atk/EQd/eUZPSXSwRM3bOYN0jyYEo="
        }
      },
      "16": {
        "private": {
          "type": "Buffer",
          "data": "+EaJTJEltIN2g4imIQqAIyj/ycRvX/yraQU/Y2Fi+3c="
        },
        "public": {
          "type": "Buffer",
          "data": "eSK13KqRhey44v6U17S3p/P6dfkMJOu6h4OryR2PUSw="
        }
      },
      "17": {
        "private": {
          "type": "Buffer",
          "data": "qEve96lMvjByClVYqYziudpHmMVFN+D6N3SwEKNs/2A="
        },
        "public": {
          "type": "Buffer",
          "data": "f998GCQtauKeNGlx7p7NK/4p/3azMCWE3zJZMzWOrBI="
        }
      },
      "18": {
        "private": {
          "type": "Buffer",
          "data": "qDzE6XCDTwX5QO0YDQ+yde2dA2MeyV5GCdAOCTExrmA="
        },
        "public": {
          "type": "Buffer",
          "data": "vkxlJ+FsX2FW+9tSIL9HoU7J61ZpA8Cn46eDQjxN31Y="
        }
      },
      "19": {
        "private": {
          "type": "Buffer",
          "data": "AAObhYrrrpTdAIKxayj1gIr7ma5DDlYVpbqNpSxGqnE="
        },
        "public": {
          "type": "Buffer",
          "data": "DBK5DCBpTiTG1pmDqh1rhjgPzNF58XRvqvnwxq/XfD8="
        }
      },
      "20": {
        "private": {
          "type": "Buffer",
          "data": "YDALmFlulHC/sp5xRJwfxBySvgDzYc2iMrxEfbGrUGM="
        },
        "public": {
          "type": "Buffer",
          "data": "xknaIpODAQE4e8fYFVWSpRqfU4tXtaRZKjvhe9pZNWo="
        }
      },
      "21": {
        "private": {
          "type": "Buffer",
          "data": "AIWvyy5FRno4MbenQmnheZQvPc/+gcBpuyDvAYu0y3w="
        },
        "public": {
          "type": "Buffer",
          "data": "HGPxOISop7Vc2No3mfmILO9NMbAmV6AR7oMgUZurOVM="
        }
      },
      "22": {
        "private": {
          "type": "Buffer",
          "data": "qCESAxjN5eQs4olt6hBnPc7ESbYUdjGFiV9u382Fa30="
        },
        "public": {
          "type": "Buffer",
          "data": "QK2B4Yg2rGLdHnlXJms4nkurVbJdzRVNZf1WgDWve0s="
        }
      },
      "23": {
        "private": {
          "type": "Buffer",
          "data": "GDwW6OSsQxHXbhqjhiHQiZ5JAXsUbiZcSpEIGITlLEE="
        },
        "public": {
          "type": "Buffer",
          "data": "kd3X18HGwFjXXTofBdvRI9pLPSPcGFKMWFTvDNYS2xg="
        }
      },
      "24": {
        "private": {
          "type": "Buffer",
          "data": "AO5LnAefqZH1BFEIEnBGQy8KfQCe6dZaqsVUxWosMno="
        },
        "public": {
          "type": "Buffer",
          "data": "iW1wdqn8y+XGqvTgzY/aq9wU70ywG5sEgrS0zmtu/mk="
        }
      },
      "25": null,
      "26": {
        "private": {
          "type": "Buffer",
          "data": "2EyrLe77GlydrmyEMms9BLw82VI8GT5Kgp06e/xYtXE="
        },
        "public": {
          "type": "Buffer",
          "data": "mYl6DNBSFa9q+wQpflSNUdaBe6CFBj6vAU8LvwydvWo="
        }
      },
      "27": {
        "private": {
          "type": "Buffer",
          "data": "OM28kj0urQ/DFhmLnl5SwBvvFQsawtDD5tOOc/yvcEM="
        },
        "public": {
          "type": "Buffer",
          "data": "N+yWzF9FZ9PqMe2/8bcCtd1560jRK0WXoAwHcIKny04="
        }
      },
      "28": {
        "private": {
          "type": "Buffer",
          "data": "KAcerlE7Y8eVoGFS4tQTjzx94dPcTimVQcWftLzRRUk="
        },
        "public": {
          "type": "Buffer",
          "data": "ZkV9zbVgFzCQBiEOD5EAoYrdERCj5FCdIyMxIuQ7tmE="
        }
      },
      "29": {
        "private": {
          "type": "Buffer",
          "data": "cGT3K+sx0JDqPGleSr5NmLaLIshrQ24KIQDuMyZZr1E="
        },
        "public": {
          "type": "Buffer",
          "data": "VxudBxuS0NNoTufVhixFuLzgMBDmxQL24pQfvfPMLXY="
        }
      },
      "30": {
        "private": {
          "type": "Buffer",
          "data": "EH/ua+T1FKcQ9MJlQ8sOx68b9Wo/RY3xwq6e4vqEEUM="
        },
        "public": {
          "type": "Buffer",
          "data": "PYRu7X3gnQh+ViqHjHnXD7E7vLobXU+oVjQUh1ctcjo="
        }
      }
    },
    "sessions": {
      "79257520401.0": {
        "_sessions": {
          "BW4TMQvzUXajCoMLz6fixuLtNCnlsXmcZO9KzcjBOBRi": {
            "registrationId": 1718223515,
            "currentRatchet": {
              "ephemeralKeyPair": {
                "pubKey": "BQt1I4RKJczRW25p+VzlTv3ATputY3gH74+vffAlG3RK",
                "privKey": "ACEhFSTmFzTp87OJYWP8pzNWlW/uBwm5ylEXxssb2Gs="
              },
              "lastRemoteEphemeralKey": "Bd4Mck432bqLorkiZpVsy6Th2ch836RlmtjvbGGFgXxS",
              "previousCounter": 0,
              "rootKey": "bXlJaNZyH3qxxXGm+IY+kiA/CV7Yl2enh8fgMrrzL+8="
            },
            "indexInfo": {
              "baseKey": "BW4TMQvzUXajCoMLz6fixuLtNCnlsXmcZO9KzcjBOBRi",
              "baseKeyType": 2,
              "closed": -1,
              "used": 1649743878159,
              "created": 1649743878159,
              "remoteIdentityKey": "BZ74/4qfpl/dc1QqWuYEidNOSxp+fOcRv/fKaIYHS1Fu"
            },
            "_chains": {
              "Bd4Mck432bqLorkiZpVsy6Th2ch836RlmtjvbGGFgXxS": {
                "chainKey": {
                  "counter": 11,
                  "key": "XVr41tUm33X18I5Az6vJUa+jJmYWi5MnmP5Of6xk/Lc="
                },
                "chainType": 2,
                "messageKeys": {}
              },
              "BQt1I4RKJczRW25p+VzlTv3ATputY3gH74+vffAlG3RK": {
                "chainKey": {
                  "counter": -1,
                  "key": "JmrEkPoOv8eeIlWEDB6oNecZM+JS/NMu2yPxkcQ7MZY="
                },
                "chainType": 1,
                "messageKeys": {}
              }
            }
          }
        },
        "version": "v1"
      }
    },
    "appStateSyncKeys": {
      "AAAAAHih": {
        "keyData": "M7vcg9PlqRzqTGEC3yCg6/FlqHTIOZIhOpRH86YmPH0=",
        "fingerprint": {
          "rawId": 316995540,
          "currentIndex": 1,
          "deviceIndexes": [
            0,
            1
          ]
        },
        "timestamp": "1649743871662"
      }
    },
    "appStateVersions": {
      "critical_block": {
        "version": 1,
        "hash": {
          "type": "Buffer",
          "data": "opchYiGd6/7OV345BIonj1uFhuoCsuc8+4y079b5hJif3MIq6bxf57pW43dOCV66HK6mWwmk89L7Byw3ypieNyeSeF1Fk8aadVRHMZ44DpbOQteR8DDnI/21AJ2ide/a+qPZxOuA6+ksngscu8I6YDfQdIoTtHy9fLN5FRY+SnY="
        },
        "indexValueMap": {
          "INrOaTwmyAwZoCCBdALXguyggafzW2VsW2aD9fmLhLI=": {
            "valueMac": {
              "type": "Buffer",
              "data": "owftMCBIfi/mQR2R+66FjcAhzfMVkiz/XNiTVyWMHh8="
            }
          },
          "pCe+41iEwrA4gUT6HNDVA0eXZhBREmhihRLrkoWt6Os=": {
            "valueMac": {
              "type": "Buffer",
              "data": "BVl4OX5qTCFhAJZnRF7x6FpFfc1b+NTFJHYB0e7iHxs="
            }
          }
        }
      },
      "regular": {
        "version": 1,
        "hash": {
          "type": "Buffer",
          "data": "MGnrTnMuiFX7TirDxvTDyKUh/0FKxkNMPhQ2BOWh5P+M05aqBkrq2JFXQ3cqoKEKjZhFrupLNHcD93vuDRasx4iPF9dUOkyzun1/creNjl7H7UzM2P4gnGftSOHdIxZ4DincZCCR9x4IkAT+Pl0BcNJPD0zw6kfX7RGrtJ7wWcw="
        },
        "indexValueMap": {
          "fyqO9DLpr6jfX0iruk8YsTxbATGnvFVuXOnwx7bgZYQ=": {
            "valueMac": {
              "type": "Buffer",
              "data": "tYfbvEP/nf+YddNVHKo3JQdsz7fgLtF/95+ZFVQivkM="
            }
          }
        }
      }
    }
  }
}
